<?xml version="1.0" encoding="UTF-8"?>
<svg width="23px" height="19px" viewBox="0 0 23 19" version="1.1" xmlns="http://www.w3.org/2000/svg" xmlns:xlink="http://www.w3.org/1999/xlink">
    <!-- Generator: sketchtool 49 (51002) - http://www.bohemiancoding.com/sketch -->
    <title>9BEFEC2C-1C56-4DF6-9C64-FD368AC1AA57</title>
    <desc>Created with sketchtool.</desc>
    <defs></defs>
    <g id="Page-1" stroke="none" stroke-width="1" fill="none" fill-rule="evenodd" stroke-linecap="round" stroke-linejoin="round">
        <g id="Futurocoin_main" transform="translate(-1485.000000, -7503.000000)" stroke="#0198D0" stroke-width="1.28">
            <g id="videos" transform="translate(0.000000, 7175.000000)">
                <g id="arrow_right-copy-2" transform="translate(1466.000000, 303.000000)">
                    <g id="Group-6" transform="translate(20.000000, 26.000000)">
                        <path d="M0,8.5 L21,8.5" id="Stroke-1"></path>
                        <polyline id="Stroke-3" points="12.7272727 0 21 8.5 12.7272727 17"></polyline>
                    </g>
                </g>
            </g>
        </g>
    </g>
</svg>