<?xml version="1.0" encoding="UTF-8"?>
<svg width="42px" height="42px" viewBox="0 0 42 42" version="1.1" xmlns="http://www.w3.org/2000/svg" xmlns:xlink="http://www.w3.org/1999/xlink">
    <!-- Generator: sketchtool 49 (51002) - http://www.bohemiancoding.com/sketch -->
    <title>86217D10-FD4A-4CAB-AB70-56E14D9F8386</title>
    <desc>Created with sketchtool.</desc>
    <defs></defs>
    <g id="Page-1" stroke="none" stroke-width="1" fill="none" fill-rule="evenodd" stroke-dasharray="4,4,100,4,4,100" stroke-linecap="round" stroke-linejoin="round">
        <g id="Futurocoin_main" transform="translate(-201.000000, -1927.000000)" stroke="#0198D0">
            <g id="Timeline-and-dash" transform="translate(-12.000000, 1599.000000)">
                <g id="txt" transform="translate(211.000000, 94.000000)">
                    <path d="M5,235 L9,235 C10.104,235 11,235.896 11,237 L11,241 C11,242.104 10.104,243 9,243 L5,243 C3.896,243 3,242.104 3,241 L3,237 C3,235.896 3.896,235 5,235 Z M24.941,243 L20.941,243 C19.836,243 18.941,242.104 18.941,241 L18.941,237 C18.941,235.896 19.836,235 20.941,235 L24.941,235 C26.045,235 26.941,235.896 26.941,237 L26.941,241 C26.941,242.104 26.045,243 24.941,243 Z M41,235 L37,235 C35.896,235 35,235.896 35,237 L35,241 C35,242.104 35.896,243 37,243 L41,243 C42.105,243 43,242.104 43,241 L43,237 C43,235.896 42.105,235 41,235 Z M3,257 L3,253 C3,251.896 3.896,251 5,251 L9,251 C10.104,251 11,251.896 11,253 L11,257 C11,258.104 10.104,259 9,259 L5,259 C3.896,259 3,258.104 3,257 Z M28.941,251 L28.941,259 C28.941,260.104 28.045,261 26.941,261 L18.941,261 C17.836,261 16.941,260.104 16.941,259 L16.941,251 C16.941,249.896 17.836,249 18.941,249 L26.941,249 C28.045,249 28.941,249.896 28.941,251 Z M43,253 L43,257 C43,258.104 42.105,259 41,259 L37,259 C35.896,259 35,258.104 35,257 L35,253 C35,251.896 35.896,251 37,251 L41,251 C42.105,251 43,251.896 43,253 Z M9,275 L5,275 C3.896,275 3,274.104 3,273 L3,269 C3,267.896 3.896,267 5,267 L9,267 C10.104,267 11,267.896 11,269 L11,273 C11,274.104 10.104,275 9,275 Z M20.941,267 L24.941,267 C26.045,267 26.941,267.896 26.941,269 L26.941,273 C26.941,274.104 26.045,275 24.941,275 L20.941,275 C19.836,275 18.941,274.104 18.941,273 L18.941,269 C18.941,267.896 19.836,267 20.941,267 Z M43,269 L43,273 C43,274.104 42.105,275 41,275 L37,275 C35.896,275 35,274.104 35,273 L35,269 C35,267.896 35.896,267 37,267 L41,267 C42.105,267 43,267.896 43,269 Z" id="open-source"></path>
                </g>
            </g>
        </g>
    </g>
</svg>