<?xml version="1.0" encoding="UTF-8"?>
<svg width="16px" height="30px" viewBox="0 0 16 30" version="1.1" xmlns="http://www.w3.org/2000/svg" xmlns:xlink="http://www.w3.org/1999/xlink">
    <!-- Generator: sketchtool 49 (51002) - http://www.bohemiancoding.com/sketch -->
    <title>E5F8A484-8FD3-464C-97D2-19A8C4B56D18</title>
    <desc>Created with sketchtool.</desc>
    <defs></defs>
    <g id="Page-1" stroke="none" stroke-width="1" fill="none" fill-rule="evenodd">
        <g id="Futurocoin_main" transform="translate(-797.000000, -7492.000000)" fill="#0198D0">
            <g id="videos" transform="translate(0.000000, 7175.000000)">
                <g id="play" transform="translate(800.500000, 330.500000) scale(-1, 1) translate(-800.500000, -330.500000) translate(756.000000, 286.000000)">
                    <polygon id="Path-2" points="48 31 48 60.1547595 32.9224217 45.0771812"></polygon>
                </g>
            </g>
        </g>
    </g>
</svg>