<?xml version="1.0" encoding="UTF-8"?>
<svg width="295px" height="291px" viewBox="0 0 295 291" version="1.1" xmlns="http://www.w3.org/2000/svg" xmlns:xlink="http://www.w3.org/1999/xlink">
    <!-- Generator: sketchtool 49 (51002) - http://www.bohemiancoding.com/sketch -->
    <title>A16967D6-0A8B-4DE0-B4D0-E14AE9F6580A</title>
    <desc>Created with sketchtool.</desc>
    <defs></defs>
    <g id="Page-1" stroke="none" stroke-width="1" fill="none" fill-rule="evenodd">
        <g id="Futurocoin_main" transform="translate(-1111.000000, -1687.000000)">
            <g id="Timeline-and-dash" transform="translate(-12.000000, 1599.000000)">
                <g id="redefine_illu" transform="translate(1126.000000, 91.000000)">
                    <path d="M240,248 C233.926167,248 229,243.075667 229,237 C229,230.924333 233.926167,226 240,226 C246.075667,226 251,230.924333 251,237 C251,243.075667 246.075667,248 240,248 Z" id="Fill-133" stroke="#FFFFFF" stroke-width="5" fill="#FFBF3D"></path>
                    <path d="M286,203 C286,209.075667 281.075667,214 275,214 C268.926167,214 264,209.075667 264,203 C264,196.924333 268.926167,192 275,192 C281.075667,192 286,196.924333 286,203" id="Fill-134" stroke="#FFFFFF" stroke-width="5" fill="#67BDDF"></path>
                    <path d="M213,270 C213,276.075667 208.075667,281 202,281 C195.926167,281 191,276.075667 191,270 C191,263.924333 195.926167,259 202,259 C208.075667,259 213,263.924333 213,270" id="Fill-135" stroke="#FFFFFF" stroke-width="5" fill="#67BDDF"></path>
                    <path d="M4,82 C4,75.9243333 8.92616667,71 15,71 C21.0756667,71 26,75.9243333 26,82 C26,88.0738333 21.0756667,93 15,93 C8.92616667,93 4,88.0738333 4,82" id="Fill-136" stroke="#FFFFFF" stroke-width="5" fill="#67BDDF"></path>
                    <path d="M39,46 C39,39.9261667 43.9243333,35 50,35 C56.0756667,35 61,39.9261667 61,46 C61,52.0756667 56.0756667,57 50,57 C43.9243333,57 39,52.0756667 39,46" id="Fill-137" stroke="#FFFFFF" stroke-width="5" fill="#FFBF3D"></path>
                    <path d="M77,15 C77,8.92433333 81.9261667,4 88,4 C94.0775,4 99,8.92433333 99,15 C99,21.0738333 94.0775,26 88,26 C81.9261667,26 77,21.0738333 77,15" id="Fill-138" stroke="#FFFFFF" stroke-width="5" fill="#67BDDF"></path>
                    <path d="M197.601987,258.383157 L197.601987,236.79562 L188.064515,227.225473 C186.645162,225.801258 186.645162,223.492606 188.064515,222.06839 C189.483868,220.644174 191.784638,220.644174 193.203991,222.066566 L203.806433,232.703507 C205.54564,234.45232 204.871402,235.506349 204.871402,258.383157 C204.871402,263.202879 197.601987,263.208349 197.601987,258.383157" id="Fill-140" stroke="#FFFFFF" stroke-width="6" fill="#484848"></path>
                    <path d="M263.32057,204.873114 C239.901,204.873114 238.867081,205.538375 237.108313,203.822324 L224.077613,191.121391 C222.640796,189.720935 222.640796,187.450798 224.077613,186.050342 C225.51443,184.649886 227.843509,184.649886 229.280327,186.050342 L241.232954,197.700485 L263.32057,197.700485 C265.353455,197.700485 267,199.307154 267,201.286799 C267,203.268238 265.353455,204.873114 263.32057,204.873114" id="Fill-141" stroke="#FFFFFF" stroke-width="6" fill="#484848"></path>
                    <path d="M228.929874,228.958634 L208.041317,208.069082 C206.652894,206.680593 206.652894,204.429855 208.041317,203.041366 C209.429739,201.652878 211.68037,201.652878 213.068793,203.041366 L233.95735,223.930918 C235.34755,225.319407 235.34755,227.570145 233.95735,228.958634 C232.568927,230.347122 230.318297,230.347122 228.929874,228.958634" id="Fill-142" stroke="#FFFFFF" stroke-width="6" fill="#484848"></path>
                    <path d="M62.2897419,194 L31.6801128,194 C26.7770067,194 26.7695862,187 31.6801128,187 L62.2897419,187 C64.3378044,187 66,188.56625 66,190.5 C66,192.432 64.3378044,194 62.2897419,194" id="Fill-143" stroke="#FFFFFF" stroke-width="6" fill="#484848"></path>
                    <path d="M62.2897419,165 L31.6801128,165 C26.7770067,165 26.7695862,158 31.6801128,158 L62.2897419,158 C64.3378044,158 66,159.56625 66,161.5 C66,163.432 64.3378044,165 62.2897419,165" id="Fill-144" stroke="#FFFFFF" stroke-width="6" fill="#484848"></path>
                    <path d="M62.2897419,138 L31.6801128,138 C26.7770067,138 26.7695862,131 31.6801128,131 L62.2897419,131 C64.3378044,131 66,132.56625 66,134.5 C66,136.432 64.3378044,138 62.2897419,138" id="Fill-145" stroke="#FFFFFF" stroke-width="6" fill="#484848"></path>
                    <path d="M262.289742,158 L231.680113,158 C226.777007,158 226.769586,151 231.680113,151 L262.289742,151 C264.337804,151 266,152.56625 266,154.5 C266,156.432 264.337804,158 262.289742,158" id="Fill-146" stroke="#FFFFFF" stroke-width="6" fill="#484848"></path>
                    <path d="M262.289742,130 L231.680113,130 C226.777007,130 226.769586,123 231.680113,123 L262.289742,123 C264.337804,123 266,124.56625 266,126.5 C266,128.432 264.337804,130 262.289742,130" id="Fill-147" stroke="#FFFFFF" stroke-width="6" fill="#484848"></path>
                    <path d="M262.289742,102 L231.680113,102 C226.777007,102 226.769586,95 231.680113,95 L262.289742,95 C264.337804,95 266,96.56625 266,98.5 C266,100.432 264.337804,102 262.289742,102" id="Fill-148" stroke="#FFFFFF" stroke-width="6" fill="#484848"></path>
                    <path d="M191,55.3211439 L191,24.7103939 C191,22.6604013 192.56625,21 194.5,21 C196.432,21 198,22.6604013 198,24.7103939 L198,55.3211439 C198,60.2225743 191,60.2299951 191,55.3211439" id="Fill-149" stroke="#FFFFFF" stroke-width="6" fill="#484848"></path>
                    <path d="M162,55.3211439 L162,24.7103939 C162,22.6604013 163.56625,21 165.5,21 C167.432,21 169,22.6604013 169,24.7103939 L169,55.3211439 C169,60.2225743 162,60.2299951 162,55.3211439" id="Fill-150" stroke="#FFFFFF" stroke-width="6" fill="#484848"></path>
                    <path d="M134,55.3181556 L134,24.6825405 C134,19.775272 141,19.7697018 141,24.6825405 L141,55.3181556 C141,60.2235674 134,60.2309942 134,55.3181556" id="Fill-151" stroke="#FFFFFF" stroke-width="6" fill="#484848"></path>
                    <path d="M155,256.318156 L155,225.68254 C155,220.775272 162,220.769702 162,225.68254 L162,256.318156 C162,261.223567 155,261.230994 155,256.318156" id="Fill-152" stroke="#FFFFFF" stroke-width="6" fill="#484848"></path>
                    <path d="M128,256.318156 L128,225.68254 C128,220.775272 135,220.769702 135,225.68254 L135,256.318156 C135,261.223567 128,261.230994 128,256.318156" id="Fill-153" stroke="#FFFFFF" stroke-width="6" fill="#484848"></path>
                    <path d="M99,256.318156 L99,225.68254 C99,220.775272 106,220.769702 106,225.68254 L106,256.318156 C106,261.223567 99,261.230994 99,256.318156" id="Fill-154" stroke="#FFFFFF" stroke-width="6" fill="#484848"></path>
                    <path d="M274.5,196.25 C270.501625,196.25 267.25,199.501625 267.25,203.5 C267.25,207.496562 270.501625,210.75 274.5,210.75 C278.498375,210.75 281.75,207.496562 281.75,203.5 C281.75,199.501625 278.498375,196.25 274.5,196.25 Z M274.5,218 C266.505063,218 260,211.494937 260,203.5 C260,195.505062 266.505063,189 274.5,189 C282.494937,189 289,195.505062 289,203.5 C289,211.494937 282.494937,218 274.5,218 Z" id="Fill-155" stroke="#FFFFFF" stroke-width="6" fill="#484848"></path>
                    <path d="M240.5,229.25 C236.501625,229.25 233.25,232.503437 233.25,236.5 C233.25,240.498375 236.501625,243.75 240.5,243.75 C244.498375,243.75 247.75,240.498375 247.75,236.5 C247.75,232.503437 244.498375,229.25 240.5,229.25 Z M240.5,251 C232.505063,251 226,244.49675 226,236.5 C226,228.505062 232.505063,222 240.5,222 C248.494937,222 255,228.505062 255,236.5 C255,244.49675 248.494937,251 240.5,251 Z" id="Fill-156" stroke="#FFFFFF" stroke-width="6" fill="#484848"></path>
                    <path d="M201.5,263.25 C197.501625,263.25 194.25,266.501625 194.25,270.5 C194.25,274.496562 197.501625,277.75 201.5,277.75 C205.498375,277.75 208.75,274.496562 208.75,270.5 C208.75,266.501625 205.498375,263.25 201.5,263.25 Z M201.5,285 C193.505062,285 187,278.494937 187,270.5 C187,262.505062 193.505062,256 201.5,256 C209.49675,256 216,262.505062 216,270.5 C216,278.494937 209.49675,285 201.5,285 Z" id="Fill-157" stroke="#FFFFFF" stroke-width="6" fill="#484848"></path>
                    <path d="M95.7498347,61.9318322 C84.2288097,50.4541574 84,50.7295194 84,48.7162762 L84,25.6168629 C84,20.7971148 91.3219098,20.791644 91.3219098,25.6168629 L91.3219098,47.2045202 L100.926425,56.77472 C102.357858,58.1989437 102.357858,60.5076085 100.926425,61.9318322 C99.4968221,63.3560559 97.1812681,63.3560559 95.7498347,61.9318322" id="Fill-158" stroke="#FFFFFF" stroke-width="6" fill="#484848"></path>
                    <path d="M59.7137598,98.9430473 L47.7525055,87.2177738 L25.6507882,87.2177738 C20.7867534,87.2177738 20.7793892,80 25.6507882,80 L49.2768888,80 C51.3425387,80 50.9025295,80.1010488 64.9202285,93.8400812 C66.3599238,95.2493515 66.3599238,97.5337769 64.9202285,98.9430473 C63.4823741,100.352318 61.1534552,100.352318 59.7137598,98.9430473" id="Fill-159" stroke="#FFFFFF" stroke-width="6" fill="#484848"></path>
                    <path d="M76.9404625,79.9604799 L56.088342,59.107963 C52.7715239,55.7928565 57.7866807,50.7687309 61.1070481,54.0891615 L81.9591686,74.9416783 C83.3469438,76.3277052 83.3469438,78.574453 81.9591686,79.9604799 C80.5731681,81.3465067 78.3282377,81.3465067 76.9404625,79.9604799" id="Fill-160" stroke="#FFFFFF" stroke-width="6" fill="#484848"></path>
                    <path d="M14.5,74.25 C10.501625,74.25 7.25,77.501625 7.25,81.5 C7.25,85.4965625 10.501625,88.75 14.5,88.75 C18.498375,88.75 21.75,85.4965625 21.75,81.5 C21.75,77.501625 18.498375,74.25 14.5,74.25 Z M14.5,96 C6.5050625,96 0,89.4949375 0,81.5 C0,73.5050625 6.5050625,67 14.5,67 C22.49675,67 29,73.5050625 29,81.5 C29,89.4949375 22.49675,96 14.5,96 Z" id="Fill-161" stroke="#FFFFFF" stroke-width="6" fill="#484848"></path>
                    <path d="M49.5,39.25 C45.501625,39.25 42.25,42.5034375 42.25,46.5 C42.25,50.498375 45.501625,53.75 49.5,53.75 C53.498375,53.75 56.75,50.498375 56.75,46.5 C56.75,42.5034375 53.498375,39.25 49.5,39.25 Z M49.5,61 C41.5050625,61 35,54.49675 35,46.5 C35,38.5050625 41.5050625,32 49.5,32 C57.49675,32 64,38.5050625 64,46.5 C64,54.49675 57.49675,61 49.5,61 Z" id="Fill-162" stroke="#FFFFFF" stroke-width="6" fill="#484848"></path>
                    <path d="M87.5,7.25 C83.501625,7.25 80.25,10.501625 80.25,14.5 C80.25,18.4965625 83.501625,21.75 87.5,21.75 C91.498375,21.75 94.75,18.4965625 94.75,14.5 C94.75,10.501625 91.498375,7.25 87.5,7.25 Z M87.5,29 C79.5050625,29 73,22.4949375 73,14.5 C73,6.50325 79.5050625,0 87.5,0 C95.4949375,0 102,6.50325 102,14.5 C102,22.4949375 95.4949375,29 87.5,29 Z" id="Fill-163" stroke="#FFFFFF" stroke-width="6" fill="#484848"></path>
                    <path d="M66.3460766,220.643591 L186.763639,220.643591 L223.287401,184.083331 L223.69314,62.3560133 L101.159939,62.3560133 C101.036768,62.5010649 66.478304,97.7884972 66.3460766,97.9244831 L66.3460766,220.643591 Z M63.2812974,227.896172 C62.4118566,227.896172 61.571397,227.584311 60.9138824,227.014983 C59.85244,226.097532 59.1007359,225.377713 59.1007359,223.787585 C59.1007359,88.396405 58.52292,95.5528891 60.1350083,93.9065533 L94.4380737,58.869335 C94.358375,56.8186678 96.001256,55.1034324 98.0589327,55.1034324 C235.472253,55.1034324 228.239591,54.5087208 229.895152,56.171375 C231.548901,57.832216 230.976519,50.8171571 230.527308,185.602747 C230.523685,186.560087 230.143305,187.475726 229.465865,188.153842 L190.824652,226.833669 C189.170903,228.490884 196.055788,227.896172 63.2812974,227.896172 Z" id="Fill-164" stroke="#FFFFFF" stroke-width="6" fill="#484848"></path>
                    <path d="M77.0910098,101.398794 L104.711449,73.2255753 C106.467093,71.4376665 100.755785,72.1331667 212.357584,72.1331667 C214.370019,72.1331667 216,73.7626762 216,75.7745288 C216,77.7845606 214.370019,79.4158909 212.357584,79.4158909 L108.841948,79.4158909 L82.2942008,106.496701 C78.9249662,109.934147 73.7217752,104.83806 77.0910098,101.398794 Z M79.6935159,212.869992 C77.6810812,212.869992 76.0511001,211.240482 76.0511001,209.228629 C76.0511001,207.218598 77.6810812,205.587267 79.6935159,205.587267 L181.229499,205.587267 L209.436367,177.39038 C212.838383,173.987527 217.996044,179.132772 214.586743,182.539266 L185.312647,211.803072 C183.56793,213.549106 189.159038,212.869992 79.6935159,212.869992 Z" id="Fill-165" stroke="#FFFFFF" stroke-width="6" fill="#484848"></path>
                    <path d="M211.63639,86.8135593 C211.63639,86.8135593 211.629696,86.8135593 211.624676,86.8135593 C209.775533,86.8080678 208.282832,85.1624407 208.289526,83.1415593 L208.30626,77.6500339 C208.311281,75.6309831 209.809002,74 211.653124,74 C211.653124,74 211.658144,74 211.663164,74 C213.512307,74.007322 215.005008,75.6511186 214.999987,77.6738305 L214.983253,83.1653559 C214.976559,85.1825763 213.478838,86.8135593 211.63639,86.8135593 Z M211.564432,110.610169 C211.561085,110.610169 211.557738,110.610169 211.557738,110.610169 C209.703576,110.602847 208.210875,108.959051 208.217568,106.936339 L208.234303,101.444814 C208.239323,99.4275932 209.737045,97.7966102 211.581166,97.7966102 L211.591207,97.7966102 C213.440349,97.8021017 214.93305,99.4477288 214.92803,101.46861 L214.911295,106.960136 C214.904602,108.979186 213.40688,110.610169 211.564432,110.610169 Z M211.492474,134.40678 L211.48076,134.40678 C209.631618,134.399458 208.138917,132.755661 208.145611,130.732949 L208.162345,125.241424 C208.167366,123.224203 209.665087,121.59322 211.509209,121.59322 C211.512556,121.59322 211.514229,121.59322 211.514229,121.59322 C213.368391,121.598712 214.861093,123.244339 214.856072,125.26522 L214.839338,130.756746 C214.832644,132.775797 213.334923,134.40678 211.492474,134.40678 Z M211.418843,158.20339 L211.407129,158.20339 C209.559661,158.196068 208.065286,156.550441 208.07198,154.527729 L208.090388,149.036203 C208.103775,144.269559 214.799176,144.181695 214.784115,149.063661 L214.765707,154.555186 C214.759013,156.572407 213.261292,158.20339 211.418843,158.20339 Z M211.346886,182 C209.49105,182 207.993329,180.350712 208.000022,178.326169 L208.016757,172.834644 C208.02345,170.817424 209.519498,169.186441 211.36362,169.186441 C213.219456,169.186441 214.717177,170.835729 214.710484,172.858441 L214.693749,178.349966 C214.687056,180.369017 213.189334,182 211.346886,182 Z" id="Fill-167" stroke="#FFFFFF" stroke-width="6" fill="#484848"></path>
                    <path d="M76,110.126626 L76,104.631969 C76,99.7930076 83,99.7856814 83,104.631969 L83,110.126626 C83,114.967418 76,114.972913 76,110.126626 Z M76,133.936805 L76,128.442148 C76,123.603187 83,123.595861 83,128.442148 L83,133.936805 C83,138.777598 76,138.783093 76,133.936805 Z M76,157.746985 L76,152.252328 C76,147.413367 83,147.406041 83,152.252328 L83,157.746985 C83,162.587778 76,162.593272 76,157.746985 Z M76,181.557165 L76,176.062508 C76,171.223547 83,171.216221 83,176.062508 L83,181.557165 C83,186.397958 76,186.403452 76,181.557165 Z M76,205.367345 L76,199.872688 C76,197.850654 77.56625,196.209583 79.5,196.209583 C81.432,196.209583 83,197.850654 83,199.872688 L83,205.367345 C83,210.208137 76,210.213632 76,205.367345 Z" id="Fill-168" stroke="#FFFFFF" stroke-width="6" fill="#484848"></path>
                    <path d="M275.5,123 C270.835858,123 270.83081,131 275.5,131 C280.164142,131 280.16919,123 275.5,123" id="Fill-169" stroke="#FFFFFF" stroke-width="6" fill="#484848"></path>
                    <path d="M101.500631,265 C96.8348058,265 96.8314406,273 101.500631,273 C106.164774,273 106.168139,265 101.500631,265" id="Fill-170" stroke="#FFFFFF" stroke-width="6" fill="#484848"></path>
                    <path d="M18.5,158 C13.8358576,158 13.8308098,166 18.5,166 C23.1641424,166 23.1691902,158 18.5,158" id="Fill-171" stroke="#FFFFFF" stroke-width="5" fill="#6474A2"></path>
                    <path d="M194.5,7 C189.835858,7 189.83081,15 194.5,15 C199.164142,15 199.16919,7 194.5,7" id="Fill-172" stroke="#FFFFFF" stroke-width="6" fill="#484848"></path>
                    <path d="M148,112 C144.106615,112 140.309522,112.73919 136.714177,114.197047 C132.988639,115.707952 129.648546,117.925064 126.786801,120.786722 C123.924963,123.648564 121.707946,126.988662 120.197135,130.714297 C118.739189,134.309465 118,138.106563 118,141.999954 C118,145.893528 118.739189,149.690535 120.197135,153.285795 C121.707946,157.011338 123.924963,160.351436 126.786801,163.213278 C129.648546,166.074936 132.988639,168.292048 136.714177,169.802861 C140.309522,171.26081 144.106615,172 148,172 C151.893385,172 155.690478,171.26081 159.285823,169.802861 C163.011361,168.292048 166.351454,166.074936 169.213199,163.213278 C172.074945,160.351436 174.292054,157.011338 175.802865,153.285795 C177.26072,149.690535 178,145.893528 178,141.999954 C178,138.106563 177.26072,134.309465 175.802865,130.714297 C174.292054,126.988662 172.074945,123.648564 169.213108,120.786722 C166.351454,117.925064 163.011361,115.707952 159.285823,114.197139 C155.690478,112.73919 151.893385,112 148,112 M148,118.413399 C154.036373,118.413399 160.072655,120.716175 164.678201,125.321728 C173.889384,134.532834 173.889384,149.467074 164.678201,158.678272 C160.072655,163.283917 154.036373,165.586601 148,165.586601 C141.963627,165.586601 135.927254,163.283917 131.321708,158.678272 C122.110616,149.467074 122.110616,134.532834 131.321708,125.321728 C135.927254,120.716175 141.963627,118.413399 148,118.413399" id="Fill-1" fill="#FF8300"></path>
                    <path d="M155.198932,150.413271 C151.108346,154.538561 144.592777,154.762888 140.237683,151.087615 C139.986419,150.875554 139.741821,150.651318 139.505873,150.413271 C135.179248,146.049935 135.179248,138.950156 139.505873,134.586729 C139.71047,134.380301 139.921193,134.183867 140.137321,133.996973 C142.206894,132.208354 144.779266,131.314226 147.352358,131.314226 C150.193561,131.314226 153.035845,132.405333 155.198932,134.586729 C155.971283,135.365649 156.604894,136.232156 157.101566,137.154268 L162,133.107116 C161.325037,132.041267 160.530524,131.041473 159.622406,130.12563 C156.344981,126.820328 151.987365,125 147.352358,125 C142.796,125 138.508564,126.760181 135.25096,129.959724 C135.194653,130.014966 135.137986,130.069571 135.0824,130.12563 C131.804975,133.431022 130,137.825613 130,142.499955 C130,147.174477 131.804975,151.569159 135.0824,154.87437 C138.359824,158.179672 142.71735,160 147.352358,160 C151.987365,160 156.344981,158.179672 159.622406,154.87437 C160.499352,153.989964 161.269812,153.026966 161.929549,152.002004 L157.039133,147.961484 C156.552191,148.840439 155.938941,149.666969 155.198932,150.413271" id="Fill-3" fill="#FF8300"></path>
                    <path d="M154,138.874868 L147.433478,138.874868 L147.433478,142.499954 L149.891829,142.499954 L153.542739,145.505112 L147.464299,145.505112 L147.464299,150 C143.341868,150 140,146.642077 140,142.499954 C140,138.357831 143.341868,135 147.464299,135 C150.278063,135 152.727674,136.564886 154,138.874868" id="Fill-5" fill="#FF8300"></path>
                </g>
            </g>
        </g>
    </g>
</svg>